annual plants are cool
…
#unique taxa with at least one record of annual life history form
length(unique(annual_species_data$taxon_name))

[1] 4427

#4427

family_counts <- annual_species_data %>%
  group_by(family) %>%
  summarize(count = n()) %>%
  arrange(desc(count))
family_counts

# A tibble: 122 × 2
   family          count
   <chr>           <int>
 1 Asteraceae       2325
 2 Poaceae          1877
 3 Fabaceae          702
 4 Brassicaceae      607
 5 Cyperaceae        553
 6 Chenopodiaceae    366
 7 Amaranthaceae     336
 8 Caryophyllaceae   323
 9 Stylidiaceae      242
10 Boraginaceae      239
# ℹ 112 more rows
…
