fire_ephemerals
…
fire_ephemerals %>%
  filter(year > 1999) %>%
  group_by(dataResourceName, scientificName) %>%
  summarise(count = n()) |>
  arrange(desc(count))

# A tibble: 44 × 3
# Groups:   dataResourceName [17]
   dataResourceName                                     scientificName     count
   <chr>                                                <chr>              <int>
 1 NSW BioNet Atlas                                     Androcalva procum…   356
 2 NSW BioNet Atlas                                     Gyrostemon thesio…   198
 3 iNaturalist Australia                                Actinotus forsyth…   152
 4 NSW BioNet Atlas                                     Monotaxis macroph…    64
 5 NSW BioNet Atlas                                     Androcalva rosea      55
 6 Preventing extinction for New England endemic plants Monotaxis macroph…    35
 7 NSW BioNet Atlas                                     Actinotus forsyth…    19
 8 NSW AVH feed                                         Actinotus forsyth…    12
 9 ALA species sightings and OzAtlas                    Actinotus forsyth…     9
10 Earth Guardians Weekly Feed                          Actinotus forsyth…     8
# ℹ 34 more rows
…
